@startuml

skinparam linetype ortho
 
rectangle "Machine" as machine {
    component "User IF" as user_if
    component "Core" as core
    component "Database" as db
    interface "File System" as fs
}

user_if -down- core
core -right- fs
core -down- db

@enduml
