@startuml
@startuml

skinparam linetype ortho

package "Sequence #1"  as SQ1 {
  package "Phase #1" as PH1 <<rectangle>> {

  }
  package "Phase #2" as PH2 <<rectangle>> {

  }
  package "Phase #3" as PH3 <<rectangle>> {

  }
  package "Phase #4" as PH4 <<rectangle>> {

  }

  package "Process Input" as PI1 <<rectangle>> {

  }
  package "Process Output" as PO1 <<rectangle>> {

  }
  package "Component #1" as COMP1 <<rectangle>> {

  }


PH1 -right-> PH2
PH2 -right-> PH3
PH3 -right-> PH4

PI1 -down-> PH2
PH4 -down-> PO1
COMP1 -down-> PH3: introduce

@enduml
